Exercícios dplyr e ggplot2 - MQuinho de inverno
…
Para responder à primeira questão, utilize a função group_by() para a coluna country e então utilize o summarise() com o argumento mean() para calcular as médias agrupadas.

Utilizando a função arrange(), reordene as expectativas de vida encontradas em ordem decrescente, para responder a segunda parte da questão.

Salve o resultado desse código num banco chamado “seucontinente_lifeExp”

# Respostas aqui
americas_lifeExp <- americas %>% 
  group_by(country) %>% 
  summarise(media_lifeExp = mean(lifeExp)) %>% 
  arrange(desc(media_lifeExp))

americas_lifeExp

## # A tibble: 25 x 2
##    country       media_lifeExp
##    <fct>                 <dbl>
##  1 Canada                 74.9
##  2 United States          73.5
##  3 Puerto Rico            72.7
##  4 Cuba                   71.0
##  5 Uruguay                70.8
##  6 Costa Rica             70.2
##  7 Argentina              69.1
##  8 Jamaica                68.7
##  9 Panama                 67.8
## 10 Chile                  67.4
## # ... with 15 more rows
…
#1
mean(americas_lifeExp$media_lifeExp)

## [1] 64.65874

#2
americas_lifeExp <- americas_lifeExp %>% 
  mutate(classificacao_lifeExp =
           case_when(media_lifeExp < mean(media_lifeExp) ~ 'Abaixo da média',
                     media_lifeExp > mean(media_lifeExp) ~ 'Acima da média'))

americas_lifeExp

## # A tibble: 25 x 3
##    country       media_lifeExp classificacao_lifeExp
##    <fct>                 <dbl> <chr>                
##  1 Canada                 74.9 Acima da média       
##  2 United States          73.5 Acima da média       
##  3 Puerto Rico            72.7 Acima da média       
##  4 Cuba                   71.0 Acima da média       
##  5 Uruguay                70.8 Acima da média       
##  6 Costa Rica             70.2 Acima da média       
##  7 Argentina              69.1 Acima da média       
##  8 Jamaica                68.7 Acima da média       
##  9 Panama                 67.8 Acima da média       
## 10 Chile                  67.4 Acima da média       
## # ... with 15 more rows
…
