MQuinho de inverno - R para análise de dados (script)
…
&
E
x & y

8.2 Os verbos do dplyr:

8.1.2. select()

É o verbo que permite a seleção de colunas/variáveis específicas do banco de dados.

# Colunas especificadas
titanic %>% 
  select(PassengerId, Name, Survived)

## # A tibble: 891 x 3
##    PassengerId Name                                                Survived
##          <dbl> <chr>                                               <fct>   
##  1           1 Braund, Mr. Owen Harris                             0       
##  2           2 Cumings, Mrs. John Bradley (Florence Briggs Thayer) 1       
##  3           3 Heikkinen, Miss. Laina                              1       
##  4           4 Futrelle, Mrs. Jacques Heath (Lily May Peel)        1       
##  5           5 Allen, Mr. William Henry                            0       
##  6           6 Moran, Mr. James                                    0       
##  7           7 McCarthy, Mr. Timothy J                             0       
##  8           8 Palsson, Master. Gosta Leonard                      0       
##  9           9 Johnson, Mrs. Oscar W (Elisabeth Vilhelmina Berg)   1       
## 10          10 Nasser, Mrs. Nicholas (Adele Achem)                 1       
## # ... with 881 more rows

# Todas menos uma específica
titanic %>% 
  select(-PassengerId)

## # A tibble: 891 x 11
##    Survived Pclass Name      Sex     Age SibSp Parch Ticket  Fare Cabin Embarked
##    <fct>    <fct>  <chr>     <fct> <dbl> <dbl> <dbl> <chr>  <dbl> <chr> <fct>   
##  1 0        3      Braund, ~ male     22     1     0 A/5 2~  7.25 <NA>  S       
##  2 1        1      Cumings,~ fema~    38     1     0 PC 17~ 71.3  C85   C       
##  3 1        3      Heikkine~ fema~    26     0     0 STON/~  7.92 <NA>  S       
##  4 1        1      Futrelle~ fema~    35     1     0 113803 53.1  C123  S       
##  5 0        3      Allen, M~ male     35     0     0 373450  8.05 <NA>  S       
##  6 0        3      Moran, M~ male     NA     0     0 330877  8.46 <NA>  Q       
##  7 0        1      McCarthy~ male     54     0     0 17463  51.9  E46   S       
##  8 0        3      Palsson,~ male      2     3     1 349909 21.1  <NA>  S       
##  9 1        3      Johnson,~ fema~    27     0     2 347742 11.1  <NA>  S       
## 10 1        2      Nasser, ~ fema~    14     1     0 237736 30.1  <NA>  C       
## # ... with 881 more rows

# Várias exceto um conjunto específico
titanic %>% 
  select(-c(PassengerId, Name, Survived))

## # A tibble: 891 x 9
##    Pclass Sex      Age SibSp Parch Ticket            Fare Cabin Embarked
##    <fct>  <fct>  <dbl> <dbl> <dbl> <chr>            <dbl> <chr> <fct>   
##  1 3      male      22     1     0 A/5 21171         7.25 <NA>  S       
##  2 1      female    38     1     0 PC 17599         71.3  C85   C       
##  3 3      female    26     0     0 STON/O2. 3101282  7.92 <NA>  S       
##  4 1      female    35     1     0 113803           53.1  C123  S       
##  5 3      male      35     0     0 373450            8.05 <NA>  S       
##  6 3      male      NA     0     0 330877            8.46 <NA>  Q       
##  7 1      male      54     0     0 17463            51.9  E46   S       
##  8 3      male       2     3     1 349909           21.1  <NA>  S       
##  9 3      female    27     0     2 347742           11.1  <NA>  S       
## 10 2      female    14     1     0 237736           30.1  <NA>  C       
## # ... with 881 more rows

8.1.3. filter()

É o verbo que permite a filtragem de linhas/casos do banco de dados por uma ou mais condições.

Variáveis categóricas:

# Uma característica categórica
titanic %>% 
  filter(Sex == 'female')

## # A tibble: 314 x 12
##    PassengerId Survived Pclass Name   Sex     Age SibSp Parch Ticket  Fare Cabin
##          <dbl> <fct>    <fct>  <chr>  <fct> <dbl> <dbl> <dbl> <chr>  <dbl> <chr>
##  1           2 1        1      Cumin~ fema~    38     1     0 PC 17~ 71.3  C85  
##  2           3 1        3      Heikk~ fema~    26     0     0 STON/~  7.92 <NA> 
##  3           4 1        1      Futre~ fema~    35     1     0 113803 53.1  C123 
##  4           9 1        3      Johns~ fema~    27     0     2 347742 11.1  <NA> 
##  5          10 1        2      Nasse~ fema~    14     1     0 237736 30.1  <NA> 
##  6          11 1        3      Sands~ fema~     4     1     1 PP 95~ 16.7  G6   
##  7          12 1        1      Bonne~ fema~    58     0     0 113783 26.6  C103 
##  8          15 0        3      Vestr~ fema~    14     0     0 350406  7.85 <NA> 
##  9          16 1        2      Hewle~ fema~    55     0     0 248706 16    <NA> 
## 10          19 0        3      Vande~ fema~    31     1     0 345763 18    <NA> 
## # ... with 304 more rows, and 1 more variable: Embarked <fct>

# Duas características categóricas simultâneamente
titanic %>% 
  filter(Sex == 'female' & Survived == '1')

## # A tibble: 233 x 12
##    PassengerId Survived Pclass Name   Sex     Age SibSp Parch Ticket  Fare Cabin
##          <dbl> <fct>    <fct>  <chr>  <fct> <dbl> <dbl> <dbl> <chr>  <dbl> <chr>
##  1           2 1        1      "Cumi~ fema~    38     1     0 PC 17~ 71.3  C85  
##  2           3 1        3      "Heik~ fema~    26     0     0 STON/~  7.92 <NA> 
##  3           4 1        1      "Futr~ fema~    35     1     0 113803 53.1  C123 
##  4           9 1        3      "John~ fema~    27     0     2 347742 11.1  <NA> 
##  5          10 1        2      "Nass~ fema~    14     1     0 237736 30.1  <NA> 
##  6          11 1        3      "Sand~ fema~     4     1     1 PP 95~ 16.7  G6   
##  7          12 1        1      "Bonn~ fema~    58     0     0 113783 26.6  C103 
##  8          16 1        2      "Hewl~ fema~    55     0     0 248706 16    <NA> 
##  9          20 1        3      "Mass~ fema~    NA     0     0 2649    7.22 <NA> 
## 10          23 1        3      "McGo~ fema~    15     0     0 330923  8.03 <NA> 
## # ... with 223 more rows, and 1 more variable: Embarked <fct>

# Por uma característica ou outra
titanic %>% 
  filter(Sex == 'female'| Embarked == 'S')

## # A tibble: 755 x 12
##    PassengerId Survived Pclass Name   Sex     Age SibSp Parch Ticket  Fare Cabin
##          <dbl> <fct>    <fct>  <chr>  <fct> <dbl> <dbl> <dbl> <chr>  <dbl> <chr>
##  1           1 0        3      Braun~ male     22     1     0 A/5 2~  7.25 <NA> 
##  2           2 1        1      Cumin~ fema~    38     1     0 PC 17~ 71.3  C85  
##  3           3 1        3      Heikk~ fema~    26     0     0 STON/~  7.92 <NA> 
##  4           4 1        1      Futre~ fema~    35     1     0 113803 53.1  C123 
##  5           5 0        3      Allen~ male     35     0     0 373450  8.05 <NA> 
##  6           7 0        1      McCar~ male     54     0     0 17463  51.9  E46  
##  7           8 0        3      Palss~ male      2     3     1 349909 21.1  <NA> 
##  8           9 1        3      Johns~ fema~    27     0     2 347742 11.1  <NA> 
##  9          10 1        2      Nasse~ fema~    14     1     0 237736 30.1  <NA> 
## 10          11 1        3      Sands~ fema~     4     1     1 PP 95~ 16.7  G6   
## # ... with 745 more rows, and 1 more variable: Embarked <fct>

# Por um conjunto de características em uma mesma coluna
titanic %>% 
  filter(Embarked %in% c('S','C'))

## # A tibble: 812 x 12
##    PassengerId Survived Pclass Name   Sex     Age SibSp Parch Ticket  Fare Cabin
##          <dbl> <fct>    <fct>  <chr>  <fct> <dbl> <dbl> <dbl> <chr>  <dbl> <chr>
##  1           1 0        3      Braun~ male     22     1     0 A/5 2~  7.25 <NA> 
##  2           2 1        1      Cumin~ fema~    38     1     0 PC 17~ 71.3  C85  
##  3           3 1        3      Heikk~ fema~    26     0     0 STON/~  7.92 <NA> 
##  4           4 1        1      Futre~ fema~    35     1     0 113803 53.1  C123 
##  5           5 0        3      Allen~ male     35     0     0 373450  8.05 <NA> 
##  6           7 0        1      McCar~ male     54     0     0 17463  51.9  E46  
##  7           8 0        3      Palss~ male      2     3     1 349909 21.1  <NA> 
##  8           9 1        3      Johns~ fema~    27     0     2 347742 11.1  <NA> 
##  9          10 1        2      Nasse~ fema~    14     1     0 237736 30.1  <NA> 
## 10          11 1        3      Sands~ fema~     4     1     1 PP 95~ 16.7  G6   
## # ... with 802 more rows, and 1 more variable: Embarked <fct>

Variáveis numéricas:

# ----------- Filtragem por variáveis numéricas  ----------

# Um valor específico
titanic %>% 
  filter(Age == 22)

## # A tibble: 27 x 12
##    PassengerId Survived Pclass Name   Sex     Age SibSp Parch Ticket  Fare Cabin
##          <dbl> <fct>    <fct>  <chr>  <fct> <dbl> <dbl> <dbl> <chr>  <dbl> <chr>
##  1           1 0        3      Braun~ male     22     1     0 A/5 2~  7.25 <NA> 
##  2          61 0        3      Siray~ male     22     0     0 2669    7.23 <NA> 
##  3          81 0        3      Waele~ male     22     0     0 345767  9    <NA> 
##  4         113 0        3      Barto~ male     22     0     0 324669  8.05 <NA> 
##  5         142 1        3      Nyste~ fema~    22     0     0 347081  7.75 <NA> 
##  6         152 1        1      Pears~ fema~    22     1     0 113776 66.6  C2   
##  7         213 0        3      Perki~ male     22     0     0 A/5 2~  7.25 <NA> 
##  8         226 0        3      Bergl~ male     22     0     0 PP 43~  9.35 <NA> 
##  9         244 0        3      Maenp~ male     22     0     0 STON/~  7.12 <NA> 
## 10         288 0        3      Naide~ male     22     0     0 349206  7.90 <NA> 
## # ... with 17 more rows, and 1 more variable: Embarked <fct>

# Valores maiores ou iguais a / Menores ou iguais a
titanic %>% 
  filter(Age >= 25)

## # A tibble: 436 x 12
##    PassengerId Survived Pclass Name   Sex     Age SibSp Parch Ticket  Fare Cabin
##          <dbl> <fct>    <fct>  <chr>  <fct> <dbl> <dbl> <dbl> <chr>  <dbl> <chr>
##  1           2 1        1      Cumin~ fema~    38     1     0 PC 17~ 71.3  C85  
##  2           3 1        3      Heikk~ fema~    26     0     0 STON/~  7.92 <NA> 
##  3           4 1        1      Futre~ fema~    35     1     0 113803 53.1  C123 
##  4           5 0        3      Allen~ male     35     0     0 373450  8.05 <NA> 
##  5           7 0        1      McCar~ male     54     0     0 17463  51.9  E46  
##  6           9 1        3      Johns~ fema~    27     0     2 347742 11.1  <NA> 
##  7          12 1        1      Bonne~ fema~    58     0     0 113783 26.6  C103 
##  8          14 0        3      Ander~ male     39     1     5 347082 31.3  <NA> 
##  9          16 1        2      Hewle~ fema~    55     0     0 248706 16    <NA> 
## 10          19 0        3      Vande~ fema~    31     1     0 345763 18    <NA> 
## # ... with 426 more rows, and 1 more variable: Embarked <fct>

titanic %>% 
  filter(Age <= 25)

## # A tibble: 301 x 12
##    PassengerId Survived Pclass Name  Sex     Age SibSp Parch Ticket   Fare Cabin
##          <dbl> <fct>    <fct>  <chr> <fct> <dbl> <dbl> <dbl> <chr>   <dbl> <chr>
##  1           1 0        3      "Bra~ male     22     1     0 A/5 2~   7.25 <NA> 
##  2           8 0        3      "Pal~ male      2     3     1 349909  21.1  <NA> 
##  3          10 1        2      "Nas~ fema~    14     1     0 237736  30.1  <NA> 
##  4          11 1        3      "San~ fema~     4     1     1 PP 95~  16.7  G6   
##  5          13 0        3      "Sau~ male     20     0     0 A/5. ~   8.05 <NA> 
##  6          15 0        3      "Ves~ fema~    14     0     0 350406   7.85 <NA> 
##  7          17 0        3      "Ric~ male      2     4     1 382652  29.1  <NA> 
##  8          23 1        3      "McG~ fema~    15     0     0 330923   8.03 <NA> 
##  9          25 0        3      "Pal~ fema~     8     3     1 349909  21.1  <NA> 
## 10          28 0        1      "For~ male     19     3     2 19950  263    C23 ~
## # ... with 291 more rows, and 1 more variable: Embarked <fct>

# Valores num intervalo
titanic %>% 
  filter(Age >= 22 & Age <= 25)

## # A tibble: 97 x 12
##    PassengerId Survived Pclass Name  Sex     Age SibSp Parch Ticket   Fare Cabin
##          <dbl> <fct>    <fct>  <chr> <fct> <dbl> <dbl> <dbl> <chr>   <dbl> <chr>
##  1           1 0        3      Brau~ male     22     1     0 A/5 2~   7.25 <NA> 
##  2          61 0        3      Sira~ male     22     0     0 2669     7.23 <NA> 
##  3          76 0        3      Moen~ male     25     0     0 348123   7.65 F G73
##  4          81 0        3      Wael~ male     22     0     0 345767   9    <NA> 
##  5          89 1        1      Fort~ fema~    23     3     2 19950  263    C23 ~
##  6          90 0        3      Celo~ male     24     0     0 343275   8.05 <NA> 
##  7          98 1        1      Gree~ male     23     0     1 PC 17~  63.4  D10 ~
##  8         113 0        3      Bart~ male     22     0     0 324669   8.05 <NA> 
##  9         119 0        1      Baxt~ male     24     0     1 PC 17~ 248.   B58 ~
## 10         128 1        3      Mads~ male     24     0     0 C 173~   7.14 <NA> 
## # ... with 87 more rows, and 1 more variable: Embarked <fct>

titanic %>% 
  filter(between(Age, 22, 25))

## # A tibble: 97 x 12
##    PassengerId Survived Pclass Name  Sex     Age SibSp Parch Ticket   Fare Cabin
##          <dbl> <fct>    <fct>  <chr> <fct> <dbl> <dbl> <dbl> <chr>   <dbl> <chr>
##  1           1 0        3      Brau~ male     22     1     0 A/5 2~   7.25 <NA> 
##  2          61 0        3      Sira~ male     22     0     0 2669     7.23 <NA> 
##  3          76 0        3      Moen~ male     25     0     0 348123   7.65 F G73
##  4          81 0        3      Wael~ male     22     0     0 345767   9    <NA> 
##  5          89 1        1      Fort~ fema~    23     3     2 19950  263    C23 ~
##  6          90 0        3      Celo~ male     24     0     0 343275   8.05 <NA> 
##  7          98 1        1      Gree~ male     23     0     1 PC 17~  63.4  D10 ~
##  8         113 0        3      Bart~ male     22     0     0 324669   8.05 <NA> 
##  9         119 0        1      Baxt~ male     24     0     1 PC 17~ 248.   B58 ~
## 10         128 1        3      Mads~ male     24     0     0 C 173~   7.14 <NA> 
## # ... with 87 more rows, and 1 more variable: Embarked <fct>

# Um conjunto específico de valores
titanic %>% 
  filter(Age %in% c(22, 23, 30, 35))

## # A tibble: 85 x 12
##    PassengerId Survived Pclass Name  Sex     Age SibSp Parch Ticket   Fare Cabin
##          <dbl> <fct>    <fct>  <chr> <fct> <dbl> <dbl> <dbl> <chr>   <dbl> <chr>
##  1           1 0        3      Brau~ male     22     1     0 A/5 2~   7.25 <NA> 
##  2           4 1        1      Futr~ fema~    35     1     0 113803  53.1  C123 
##  3           5 0        3      Alle~ male     35     0     0 373450   8.05 <NA> 
##  4          21 0        2      Fynn~ male     35     0     0 239865  26    <NA> 
##  5          61 0        3      Sira~ male     22     0     0 2669     7.23 <NA> 
##  6          80 1        3      Dowd~ fema~    30     0     0 364516  12.5  <NA> 
##  7          81 0        3      Wael~ male     22     0     0 345767   9    <NA> 
##  8          89 1        1      Fort~ fema~    23     3     2 19950  263    C23 ~
##  9          98 1        1      Gree~ male     23     0     1 PC 17~  63.4  D10 ~
## 10         113 0        3      Bart~ male     22     0     0 324669   8.05 <NA> 
## # ... with 75 more rows, and 1 more variable: Embarked <fct>

8.1.4. mutate()

Cria novas variáveis ou altera as pré-existentes partindo das variáveis iniciais do banco de dados.

# Número de familiares a bordo
titanic %>% 
  mutate(n_familiares = SibSp + Parch)

## # A tibble: 891 x 13
##    PassengerId Survived Pclass Name   Sex     Age SibSp Parch Ticket  Fare Cabin
##          <dbl> <fct>    <fct>  <chr>  <fct> <dbl> <dbl> <dbl> <chr>  <dbl> <chr>
##  1           1 0        3      Braun~ male     22     1     0 A/5 2~  7.25 <NA> 
##  2           2 1        1      Cumin~ fema~    38     1     0 PC 17~ 71.3  C85  
##  3           3 1        3      Heikk~ fema~    26     0     0 STON/~  7.92 <NA> 
##  4           4 1        1      Futre~ fema~    35     1     0 113803 53.1  C123 
##  5           5 0        3      Allen~ male     35     0     0 373450  8.05 <NA> 
##  6           6 0        3      Moran~ male     NA     0     0 330877  8.46 <NA> 
##  7           7 0        1      McCar~ male     54     0     0 17463  51.9  E46  
##  8           8 0        3      Palss~ male      2     3     1 349909 21.1  <NA> 
##  9           9 1        3      Johns~ fema~    27     0     2 347742 11.1  <NA> 
## 10          10 1        2      Nasse~ fema~    14     1     0 237736 30.1  <NA> 
## # ... with 881 more rows, and 2 more variables: Embarked <fct>,
## #   n_familiares <dbl>
…
# if_else: Passageiro idoso dummy
titanic %>% 
  mutate(idoso_dummy = if_else(condition = Age >= 60,
                               true = 1,
                               false = 0))

## # A tibble: 891 x 15
##    PassengerId Survived Pclass Name   Sex     Age SibSp Parch Ticket  Fare Cabin
##          <dbl> <fct>    <fct>  <chr>  <fct> <dbl> <dbl> <dbl> <chr>  <dbl> <chr>
##  1           1 0        3      Braun~ male     22     1     0 A/5 2~  7.25 <NA> 
##  2           2 1        1      Cumin~ fema~    38     1     0 PC 17~ 71.3  C85  
##  3           3 1        3      Heikk~ fema~    26     0     0 STON/~  7.92 <NA> 
##  4           4 1        1      Futre~ fema~    35     1     0 113803 53.1  C123 
##  5           5 0        3      Allen~ male     35     0     0 373450  8.05 <NA> 
##  6           6 0        3      Moran~ male     NA     0     0 330877  8.46 <NA> 
##  7           7 0        1      McCar~ male     54     0     0 17463  51.9  E46  
##  8           8 0        3      Palss~ male      2     3     1 349909 21.1  <NA> 
##  9           9 1        3      Johns~ fema~    27     0     2 347742 11.1  <NA> 
## 10          10 1        2      Nasse~ fema~    14     1     0 237736 30.1  <NA> 
## # ... with 881 more rows, and 4 more variables: Embarked <fct>,
## #   faixas_etarias <chr>, faixas_etarias1 <chr>, idoso_dummy <dbl>
…
8.1.6. arrange()

Reordena as linhas com base numa coluna de referência.

# Crescente - Idade
titanic %>% 
  select(Name, Age) %>% 
  arrange(Age)

## # A tibble: 891 x 2
##    Name                              Age
##    <chr>                           <dbl>
##  1 Thomas, Master. Assad Alexander  0.42
##  2 Hamalainen, Master. Viljo        0.67
##  3 Baclini, Miss. Helene Barbara    0.75
##  4 Baclini, Miss. Eugenie           0.75
##  5 Caldwell, Master. Alden Gates    0.83
##  6 Richards, Master. George Sibley  0.83
##  7 Allison, Master. Hudson Trevor   0.92
##  8 Panula, Master. Eino Viljami     1   
##  9 Johnson, Miss. Eleanor Ileen     1   
## 10 Becker, Master. Richard F        1   
## # ... with 881 more rows

# Decrescente - Idade
titanic %>% 
  select(Name, Age) %>% 
  arrange(-Age)

## # A tibble: 891 x 2
##    Name                                   Age
##    <chr>                                <dbl>
##  1 Barkworth, Mr. Algernon Henry Wilson  80  
##  2 Svensson, Mr. Johan                   74  
##  3 Goldschmidt, Mr. George B             71  
##  4 Artagaveytia, Mr. Ramon               71  
##  5 Connors, Mr. Patrick                  70.5
##  6 Mitchell, Mr. Henry Michael           70  
##  7 Crosby, Capt. Edward Gifford          70  
##  8 Wheadon, Mr. Edward H                 66  
##  9 Ostby, Mr. Engelhart Cornelius        65  
## 10 Duane, Mr. Frank                      65  
## # ... with 881 more rows
…
